78.111.187.33 in 12:37:12 11.12.2017 Result: Connection Established! 
193.23.157.193 in 13:22:21 11.12.2017 Result: Connection Established! 
195.211.63.152 in 19:43:34 11.12.2017 Result: Connection Established! 
193.201.98.71 in 12:02:48 13.12.2017 Result: Connection Established! 
91.235.226.234 in 20:49:41 14.12.2017 Result: Connection Established! 
91.234.25.86 in 11:17:26 15.12.2017 Result: Connection Established! 
